FML Assignment 4
…
Companies in Red have a good assest turnover and beta, but its leverage, market cap, net profit margin, revenue, growth, ROA and ROE are low but it has good PE ration.

2)Green: Companies have low asset value(Asset turnover, ROA, ROE), But good revenue growth, beta and leverage.

Companies in Green, have low assest value(Assest turnover, ROA, ROE), but good revenue growth, beta and leverage.

3)Blue: Companies have good Asset value(Asset turnover, ROA, ROE) and market cap, But lacks in Beta, Leverage, PE Ratio and Revenue Growth. Companies in blue have good assest value (Assest turnover, ROA, ROE) and market cap, but lacks Beta, Leverage, PE Ration and Revenue Growth.

#Q3: I am applying above cluster patterns.

(Pharmaceuticals_10to12 <-  Pharmaceuticals %>% select(c("Median_Recommendation","Location","Exchange")) %>% 
  mutate(cluster_pattern = model_K3$cluster) %>% arrange(desc(cluster_pattern)))

## # A tibble: 21 x 4
##    Median_Recommendation Location Exchange cluster_pattern
##    <chr>                 <chr>    <chr>              <int>
##  1 Moderate Buy          CANADA   NYSE                   3
##  2 Strong Buy            UK       NYSE                   3
##  3 Hold                  GERMANY  NYSE                   3
##  4 Hold                  US       NYSE                   3
##  5 Moderate Buy          US       NYSE                   2
##  6 Moderate Sell         UK       NYSE                   2
##  7 Moderate Sell         US       NYSE                   2
##  8 Hold                  US       NYSE                   2
##  9 Hold                  UK       NYSE                   2
## 10 Moderate Buy          US       NYSE                   2
## # ... with 11 more rows
…
